…
**Q5**

::: {#cb29 .sourceCode}
``` {.sourceCode .r}
sales %>% 
  filter(Date >= as.Date('2011/01/07') & Date <= as.Date('2011/12/30') ) %>% 
  group_by(Store) %>% 
  summarise(total_sales = sum(Weekly_Sales),
            mean_sales = mean(Weekly_Sales)) %>% 
  arrange(desc(total_sales))
```
:::

    ## # A tibble: 45 × 3
    ##    Store total_sales mean_sales
    ##    <chr>       <dbl>      <dbl>
    ##  1 4      111857114.     30037.
    ##  2 20     110552711.     29655.
    ##  3 14     106780833.     29303.
    ##  4 13     105233983.     27657.
    ##  5 10      99594226.     26580.
    ##  6 2       99271930.     26622.
    ##  7 27      92545861.     24825.
    ##  8 1       81477648.     21867.
    ##  9 6       81167520.     21778.
    ## 10 39      76272734.     21240.
    ## # … with 35 more rows
…
::: {#inferential-statistics .section .level1 number="2"}
[2]{.header-section-number} Inferential Statistics
==================================================

::: {#cb43 .sourceCode}
``` {.sourceCode .r}
#Converting Store type to numeric variable
stores %>% 
  mutate(Type = as.numeric(as.factor(Type)))
```
:::

    ## # A tibble: 45 × 3
    ##    Store  Type   Size
    ##    <chr> <dbl>  <dbl>
    ##  1 1         1 151315
    ##  2 2         1 202307
    ##  3 3         2  37392
    ##  4 4         1 205863
    ##  5 5         2  34875
    ##  6 6         1 202505
    ##  7 7         2  70713
    ##  8 8         1 155078
    ##  9 9         2 125833
    ## 10 10        2 126512
    ## # … with 35 more rows
…
